TermProject/simulation/qsim/TermProject.msim.vcd
$comment
	File created using the following command:
		vcd file TermProject.msim.vcd -direction
$end
$date
	Tue Dec 21 01:20:23 2021
$end
$version
	ModelSim Version 2020.1
$end
$timescale
	1ps
$end

$scope module test_3sec_vlg_vec_tst $end
$var reg 1 ! clk $end
$var reg 1 " en $end
$var reg 1 # rst_n $end
$var wire 1 $ CNT10 [3] $end
$var wire 1 % CNT10 [2] $end
$var wire 1 & CNT10 [1] $end
$var wire 1 ' CNT10 [0] $end
$var wire 1 ( iszero $end

$scope module i1 $end
$var wire 1 ) gnd $end
$var wire 1 * vcc $end
$var wire 1 + unknown $end
$var tri1 1 , devclrn $end
$var tri1 1 - devpor $end
$var tri1 1 . devoe $end
$var wire 1 / clk~combout $end
$var wire 1 0 en~combout $end
$var wire 1 1 rst_n~combout $end
$var wire 1 2 inst3~regout $end
$var wire 1 3 inst~regout $end
$var wire 1 4 inst20|inst2~0_combout $end
$var wire 1 5 inst2~regout $end
$var wire 1 6 inst21|inst~0_combout $end
$var wire 1 7 inst1~regout $end
$var wire 1 8 inst27~0_combout $end
$upscope $end
$upscope $end
$enddefinitions $end
#0
$dumpvars
0!
0"
1#
0'
0&
0%
0$
1(
0)
1*
x+
1,
1-
1.
0/
00
11
02
03
04
05
06
07
08
$end
#10000
1!
1/
15
12
18
14
1&
1'
0(
#20000
0!
0/
#30000
1!
1/
#40000
0!
0/
#50000
1!
1/
#60000
0!
0/
#70000
1!
1/
#80000
0!
0/
#90000
1!
1/
#100000
0!
0/
#110000
1"
1!
10
1/
#120000
0!
0/
#130000
1!
1/
02
04
0'
#140000
0!
0/
#150000
1!
1/
05
12
0&
1'
#160000
0!
0/
#170000
1!
1/
02
08
0'
1(
#180000
0!
0/
#190000
1!
1/
13
12
18
1$
1'
0(
#200000
0!
0/
#210000
1!
1/
02
14
0'
#220000
0!
0/
#230000
1!
1/
17
15
03
12
16
1%
1&
0$
1'
#240000
0!
0/
#250000
1!
1/
02
04
0'
#260000
0!
0/
#270000
1!
1/
05
12
0&
1'
#280000
0!
0/
#290000
1!
1/
02
06
14
0'
#300000
0!
0/
#310000
1!
1/
07
15
12
0%
1&
1'
#320000
0!
0/
#330000
1!
1/
02
04
0'
#340000
0"
0!
00
0/
#350000
1!
1/
12
14
1'
#360000
0!
0/
#370000
1!
1/
#380000
0!
0/
#390000
1!
1/
#400000
0!
0/
#410000
1!
1/
#420000
0!
0/
#430000
1!
1/
#440000
0!
0/
#450000
1!
1/
#460000
0!
0/
#470000
1!
1/
#480000
0!
0/
#490000
1"
1!
10
1/
#500000
0!
0/
#510000
1!
1/
02
04
0'
#520000
0!
0/
#530000
1!
1/
05
12
0&
1'
#540000
0!
0/
#550000
1!
1/
02
08
0'
1(
#560000
0!
0/
#570000
1!
1/
13
12
18
1$
1'
0(
#580000
0!
0/
#590000
1!
1/
02
14
0'
#600000
0!
0/
#610000
1!
1/
17
15
03
12
16
1%
1&
0$
1'
#620000
0!
0/
#630000
1!
1/
02
04
0'
#640000
0!
0/
#650000
1!
1/
05
12
0&
1'
#660000
0!
0/
#670000
1!
1/
02
06
14
0'
#680000
0!
0/
#690000
1!
1/
07
15
12
0%
1&
1'
#700000
0!
0/
#710000
1!
1/
02
04
0'
#720000
0!
0/
#730000
1!
1/
05
12
0&
1'
#740000
0!
0/
#750000
0"
1!
00
1/
02
08
0'
1(
#760000
0!
0/
#770000
1!
1/
15
12
18
14
1&
1'
0(
#780000
0!
0/
#790000
1!
1/
#800000
0!
0/
#810000
1!
1/
#820000
0!
0/
#830000
1!
1/
#840000
0!
0/
#850000
1!
1/
#860000
0!
0/
#870000
1!
1/
#880000
0!
0/
#890000
1!
1/
#900000
0!
0/
#910000
1!
1/
#920000
0!
0/
#930000
1!
1/
#940000
0!
0/
#950000
1!
1/
#960000
0!
0/
#970000
1!
1/
#980000
0!
0/
#990000
1!
1/
